No.	Quantity	Device	Designator	Footprint	Value	Manufacturer Part	Manufacturer	Supplier Part	Supplier
1	1	CL10A106KP8NNNC	C1	C0603	10uF	CL10A106KP8NNNC	SAMSUNG(三星)	C19702	LCSC
2	2	CL05B104KO5NNNC	C2,C3	C0402_NEW	100nF	CL05B104KO5NNNC	SAMSUNG(三星)	C1525	LCSC
3	4	0402WGF4701TCE	R1,R2,R3,R4	R0402	4.7kΩ	0402WGF4701TCE	UNI-ROYAL(厚声)	C25900	LCSC
4	1	IC254V-12-32-0743-P1524	SK1	DIP-32_L40.6-W17.7-P2.54-LS15.2-BL		IC254V-12-32-0743-P1524	XFCN(兴飞)	C2874017	LCSC
5	1	74HC21PW,118	U2	TSSOP-14_L5.0-W4.4-P0.65-LS6.5-BL		74HC21PW,118	Nexperia(安世)	C546725	LCSC
6	1	MHR-16H1	U3	SW-TH_SM_MHR-16H1		MHR-16H1	SM Switch	C2841465	LCSC
